Final project plan & analysis
…
brisbane_complaints <- read_csv(here(
  "clean_data/brisbane_complaints_clean.csv")
  ) %>% 
  mutate(suburb = str_to_title(suburb)
         )

brisbane_complaints_tot_per_suburb <- read_csv(here(
  "clean_data/brisbane_complaints_tot_per_suburb.csv")
  ) %>% 
  mutate(suburb = str_to_title(suburb)
         )

townsville_complaints

## # A tibble: 42,413 x 4
##    animal_type complaint_type    date_received suburb     
##    <chr>       <chr>             <chr>         <chr>      
##  1 dog         Aggressive Animal June 2020     Alice River
##  2 dog         Noise             June 2020     Alice River
##  3 dog         Noise             June 2020     Alice River
##  4 dog         Private Impound   June 2020     Alice River
##  5 dog         Wandering         June 2020     Alice River
##  6 dog         Attack            June 2020     Black River
##  7 dog         Enclosure         June 2020     Black River
##  8 dog         Wandering         June 2020     Black River
##  9 dog         Enclosure         June 2020     Bluewater  
## 10 dog         Enclosure         June 2020     Bluewater  
## # ... with 42,403 more rows

townsville_complaints_tot_per_suburb

## # A tibble: 600 x 4
##    animal_type complaint_type suburb         total
##    <chr>       <chr>          <chr>          <dbl>
##  1 cat         Enclosure      Aitkenvale        16
##  2 cat         Enclosure      Alice River        4
##  3 cat         Enclosure      Annandale         20
##  4 cat         Enclosure      Arcadia            1
##  5 cat         Enclosure      Black River        3
##  6 cat         Enclosure      Bohle Plains      12
##  7 cat         Enclosure      Burdell           22
##  8 cat         Enclosure      Bushland Beach    25
##  9 cat         Enclosure      Castle Hill        1
## 10 cat         Enclosure      Cluden             1
## # ... with 590 more rows

brisbane_complaints

## # A tibble: 31,330 x 4
##    animal_type category             suburb          date_range        
##    <chr>       <chr>                <chr>           <chr>             
##  1 Dog         Fencing Issues       Sunnybank       january march 2016
##  2 Dog         Fencing Issues       Sunnybank Hills january march 2016
##  3 Dog         Defecating In Public Sunnybank       january march 2016
##  4 Dog         Fencing Issues       Sunnybank       january march 2016
##  5 Attack      Attack On An Animal  Calamvale       january march 2016
##  6 Attack      Attack On A Person   Stretton        january march 2016
##  7 Dog         Fox                  Annerley        january march 2016
##  8 Attack      Attack On An Animal  Forest Lake     january march 2016
##  9 Dog         Fencing Issues       Hawthorne       january march 2016
## 10 Dog         Defecating In Public Hawthorne       january march 2016
## # ... with 31,320 more rows

brisbane_complaints_tot_per_suburb

## # A tibble: 3,571 x 4
##    animal_type category           suburb       total
##    <chr>       <chr>              <chr>        <dbl>
##  1 Attack      Attack On A Person Acacia Ridge    39
##  2 Attack      Attack On A Person Albion           1
##  3 Attack      Attack On A Person Alderley        13
##  4 Attack      Attack On A Person Algester        13
##  5 Attack      Attack On A Person Annerley        11
##  6 Attack      Attack On A Person Anstead          7
##  7 Attack      Attack On A Person Archerfield      2
##  8 Attack      Attack On A Person Ascot            7
##  9 Attack      Attack On A Person Ashgrove        27
## 10 Attack      Attack On A Person Aspley          34
## # ... with 3,561 more rows

national_outcomes

## # A tibble: 5,312 x 5
##     year animal_type outcome   state                        tot_outcomes
##    <dbl> <chr>       <chr>     <chr>                               <dbl>
##  1  1999 Dogs        Reclaimed Australian Capital Territory          610
##  2  1999 Dogs        Reclaimed New South Wales                      3140
##  3  1999 Dogs        Reclaimed Northern Territory                    205
##  4  1999 Dogs        Reclaimed Queensland                           1392
##  5  1999 Dogs        Reclaimed South Australia                      2329
##  6  1999 Dogs        Reclaimed Tasmania                              516
##  7  1999 Dogs        Reclaimed Victoria                             7130
##  8  1999 Dogs        Reclaimed Western Australia                       1
##  9  1999 Dogs        Rehomed   Australian Capital Territory         1245
## 10  1999 Dogs        Rehomed   New South Wales                      7525
## # ... with 5,302 more rows
…
